…
``` r
# Test that it works for berryid and berryvars combination
queryAPI(berryid = 1:64, berryvars = myBerryVars)
```

    ## # A tibble: 64 × 16
    ##    name   id    growth_time max_harvest natural_gift_power  size
    ##    <chr>  <chr>       <int>       <int>              <int> <int>
    ##  1 cheri  1               3           5                 60    20
    ##  2 chesto 2               3           5                 60    80
    ##  3 pecha  3               3           5                 60    40
    ##  4 rawst  4               3           5                 60    32
    ##  5 aspear 5               3           5                 60    50
    ##  6 leppa  6               4           5                 60    28
    ##  7 oran   7               4           5                 60    35
    ##  8 persim 8               4           5                 60    47
    ##  9 lum    9              12           5                 60    34
    ## 10 sitrus 10              8           5                 60    95
    ## # … with 54 more rows, and 10 more variables: smoothness <int>,
    ## #   soil_dryness <int>, spicy <int>, dry <int>, sweet <int>,
    ## #   bitter <int>, sour <int>, natural_gift_type <chr>,
    ## #   firmness <chr>, item_name <chr>
